Project 2: Modeling, Testing, and Predicting
…
The dataset used for this project is originally called “Stephen Curry Stats” and it has many different variables that are important to the game of basketball. It comprises his statistics from the 2016-2017 NBA season and has variables such as “PTS” which show total points per game, “Result” which shows win/loss status of each game, “3.Points.Successful” which show total number of made 3-pointers per game, and more. There are 100 observations in this dataset (100 games that are recorded with the statistics).

man1<-manova(cbind(PTS, Minutes, Total.Shots, Total.3.Points, Total.FT, STL)~ Type, data = steph)
summary(man1)

##           Df  Pillai approx F num Df den Df Pr(>F)
## Type       4 0.29146   1.2182     24    372 0.2214
## Residuals 95

Since the p-value is listed at 0.2214, which is too big to be significant, I cannot move along with performing more tests, such as an ANOVA and post-hoc test. The assumptions for this MANOVA are many, and this MANOVA would not have passed all of them since it was not significant. The assumptions are random samples, independent observations, multivariate normality of DVs, homogeneity of within-group covariance matrices, linear relationships among DVs, no extreme univariate or multivariate outliers, and no multicollinearity.

steph %>% group_by(Type, Dates) %>% summarize(mean(PTS))

## # A tibble: 100 x 3
## # Groups:   Type [5]
##    Type                     Dates   `mean(PTS)`
##    <chr>                    <chr>         <dbl>
##  1 Conference Finals        5/14/17          40
##  2 Conference Finals        5/16/17          29
##  3 Conference Finals        5/20/17          21
##  4 Conference Finals        5/22/17          36
##  5 Conference Quarterfinals 4/16/17          29
##  6 Conference Quarterfinals 4/19/17          19
##  7 Conference Quarterfinals 4/22/17          34
##  8 Conference Quarterfinals 4/24/17          37
##  9 Conference Semifinals    5/2/17           22
## 10 Conference Semifinals    5/4/17           23
## # … with 90 more rows
…
