…
I used full_join to join my datasets since I knew that the counties in each dataset were the same and wanted to keep all the rows in case there may have been one that I didn’t account for. I would then be able to notice this mistake after joining the datasets. There were no rows that were dropped after joining.

project %>% summarize(mean_lths_edu = mean(lths, na.rm = T), 
    min_lths_edu = min(lths, na.rm = T))

## # A tibble: 1 x 2
##   mean_lths_edu min_lths_edu
##           <dbl>        <dbl>
## 1         0.168         0.07

project %>% group_by(county)

## # A tibble: 58 x 12
## # Groups:   county [58]
##    county young_ins middle_ins no_insurance_all   lths    hs college bachelor
##    <chr>      <dbl>      <dbl>            <dbl>  <dbl> <dbl>   <dbl>    <dbl>
##  1 Ander…     0.15       0.279            0.239 0.198  0.802   0.436    0.118
##  2 Austi…     0.182      0.281            0.25  0.176  0.824   0.532    0.21 
##  3 Bastr…     0.178      0.314            0.271 0.194  0.806   0.508    0.184
##  4 Bell …     0.103      0.231            0.189 0.0970 0.903   0.63     0.232
##  5 Bexar…     0.105      0.277            0.223 0.166  0.834   0.581    0.269
##  6 Blanc…     0.233      0.307            0.286 0.101  0.899   0.581    0.288
##  7 Bosqu…     0.185      0.312            0.274 0.177  0.823   0.474    0.177
##  8 Brazo…     0.108      0.247            0.202 0.133  0.867   0.605    0.287
##  9 Brazo…     0.131      0.248            0.218 0.144  0.856   0.66     0.398
## 10 Burle…     0.187      0.317            0.279 0.196  0.804   0.412    0.148
## # … with 48 more rows, and 4 more variables: masters <dbl>, prof <dbl>,
## #   doct <dbl>, range_of_insurance <chr>

project %>% arrange(desc(county)) %>% select(county, contains("ins"))

## # A tibble: 58 x 5
##    county                young_ins middle_ins no_insurance_all range_of_insuran…
##    <chr>                     <dbl>      <dbl>            <dbl> <chr>            
##  1 Wilson County, Texas      0.128      0.229            0.198 Low              
##  2 Williamson County, T…     0.113      0.198            0.17  Low              
##  3 Wharton County, Texas     0.15       0.316            0.263 High             
##  4 Washington County, T…     0.167      0.272            0.241 Low              
##  5 Waller County, Texas      0.176      0.334            0.286 High             
##  6 Walker County, Texas      0.149      0.28             0.247 Low              
##  7 Victoria County, Tex…     0.12       0.283            0.231 Low              
##  8 Trinity County, Texas     0.153      0.309            0.266 High             
##  9 Travis County, Texas      0.109      0.247            0.21  Low              
## 10 San Jacinto County, …     0.165      0.315            0.272 High             
## # … with 48 more rows

project %>% mutate(no_insurance_pctile = ntile(no_insurance_all, 
    100))

## # A tibble: 58 x 13
##    county young_ins middle_ins no_insurance_all   lths    hs college bachelor
##    <chr>      <dbl>      <dbl>            <dbl>  <dbl> <dbl>   <dbl>    <dbl>
##  1 Ander…     0.15       0.279            0.239 0.198  0.802   0.436    0.118
##  2 Austi…     0.182      0.281            0.25  0.176  0.824   0.532    0.21 
##  3 Bastr…     0.178      0.314            0.271 0.194  0.806   0.508    0.184
##  4 Bell …     0.103      0.231            0.189 0.0970 0.903   0.63     0.232
##  5 Bexar…     0.105      0.277            0.223 0.166  0.834   0.581    0.269
##  6 Blanc…     0.233      0.307            0.286 0.101  0.899   0.581    0.288
##  7 Bosqu…     0.185      0.312            0.274 0.177  0.823   0.474    0.177
##  8 Brazo…     0.108      0.247            0.202 0.133  0.867   0.605    0.287
##  9 Brazo…     0.131      0.248            0.218 0.144  0.856   0.66     0.398
## 10 Burle…     0.187      0.317            0.279 0.196  0.804   0.412    0.148
## # … with 48 more rows, and 5 more variables: masters <dbl>, prof <dbl>,
## #   doct <dbl>, range_of_insurance <chr>, no_insurance_pctile <int>

project %>% filter(lths == 0.174)

## # A tibble: 3 x 12
##   county young_ins middle_ins no_insurance_all  lths    hs college bachelor
##   <chr>      <dbl>      <dbl>            <dbl> <dbl> <dbl>   <dbl>    <dbl>
## 1 Rober…     0.166      0.33             0.28  0.174 0.826   0.473    0.174
## 2 Walke…     0.149      0.28             0.247 0.174 0.826   0.46     0.195
## 3 Washi…     0.167      0.272            0.241 0.174 0.826   0.512    0.221
## # … with 4 more variables: masters <dbl>, prof <dbl>, doct <dbl>,
## #   range_of_insurance <chr>

project %>% group_by(range_of_insurance, county) %>% summarize(max_masters = max(masters))

## # A tibble: 58 x 3
## # Groups:   range_of_insurance [2]
##    range_of_insurance county                 max_masters
##    <chr>              <chr>                        <dbl>
##  1 High               Bastrop County, Texas        0.059
##  2 High               Blanco County, Texas         0.108
##  3 High               Bosque County, Texas         0.052
##  4 High               Burleson County, Texas       0.053
##  5 High               Burnet County, Texas         0.074
##  6 High               Colorado County, Texas       0.046
##  7 High               Falls County, Texas          0.03 
##  8 High               Fayette County, Texas        0.043
##  9 High               Gonzales County, Texas       0.039
## 10 High               Grimes County, Texas         0.044
## # … with 48 more rows

project %>% group_by(county) %>% summarize(min_masters = min(masters))

## # A tibble: 58 x 2
##    county                 min_masters
##    <chr>                        <dbl>
##  1 Anderson County, Texas      0.042 
##  2 Austin County, Texas        0.062 
##  3 Bastrop County, Texas       0.059 
##  4 Bell County, Texas          0.08  
##  5 Bexar County, Texas         0.0970
##  6 Blanco County, Texas        0.108 
##  7 Bosque County, Texas        0.052 
##  8 Brazoria County, Texas      0.103 
##  9 Brazos County, Texas        0.183 
## 10 Burleson County, Texas      0.053 
## # … with 48 more rows

project %>% group_by(range_of_insurance, county) %>% summarize(max_college = max(college))

## # A tibble: 58 x 3
## # Groups:   range_of_insurance [2]
##    range_of_insurance county                 max_college
##    <chr>              <chr>                        <dbl>
##  1 High               Bastrop County, Texas        0.508
##  2 High               Blanco County, Texas         0.581
##  3 High               Bosque County, Texas         0.474
##  4 High               Burleson County, Texas       0.412
##  5 High               Burnet County, Texas         0.548
##  6 High               Colorado County, Texas       0.444
##  7 High               Falls County, Texas          0.393
##  8 High               Fayette County, Texas        0.445
##  9 High               Gonzales County, Texas       0.387
## 10 High               Grimes County, Texas         0.427
## # … with 48 more rows

project %>% group_by(range_of_insurance, county) %>% summarize(mean(prof))

## # A tibble: 58 x 3
## # Groups:   range_of_insurance [2]
##    range_of_insurance county                 `mean(prof)`
##    <chr>              <chr>                         <dbl>
##  1 High               Bastrop County, Texas       0.02   
##  2 High               Blanco County, Texas        0.037  
##  3 High               Bosque County, Texas        0.01   
##  4 High               Burleson County, Texas      0.012  
##  5 High               Burnet County, Texas        0.015  
##  6 High               Colorado County, Texas      0.015  
##  7 High               Falls County, Texas         0.00700
##  8 High               Fayette County, Texas       0.013  
##  9 High               Gonzales County, Texas      0.011  
## 10 High               Grimes County, Texas        0.008  
## # … with 48 more rows
…
## # A tibble: 1 x 1
##   `min(bachelor)`
##             <dbl>
## 1             0.1

project %>% summarize(min(lths))

## # A tibble: 1 x 1
##   `min(lths)`
##         <dbl>
## 1        0.07

project %>% group_by(range_of_insurance, county) %>% summarize(max(lths))

## # A tibble: 58 x 3
## # Groups:   range_of_insurance [2]
##    range_of_insurance county                 `max(lths)`
##    <chr>              <chr>                        <dbl>
##  1 High               Bastrop County, Texas        0.194
##  2 High               Blanco County, Texas         0.101
##  3 High               Bosque County, Texas         0.177
##  4 High               Burleson County, Texas       0.196
##  5 High               Burnet County, Texas         0.139
##  6 High               Colorado County, Texas       0.182
##  7 High               Falls County, Texas          0.243
##  8 High               Fayette County, Texas        0.183
##  9 High               Gonzales County, Texas       0.275
## 10 High               Grimes County, Texas         0.222
## # … with 48 more rows
…
